{
  "globalDependencies": {
    "angular-protractor": "registry:dt/angular-protractor#1.5.0+20160425143459",
    "core-js": "registry:dt/core-js#0.0.0+20160602141332",
    "jasmine": "registry:dt/jasmine#2.2.0+20160621224255",
    "node": "registry:dt/node#6.0.0+20160621231320",
    "selenium-webdriver": "registry:dt/selenium-webdriver#2.44.0+20160317120654",
     "arcgis-js-api": "github:Esri/jsapi-resources/4.x/typescript/arcgis-js-api.d.ts",
  }
}
